eu/pedu/adv19s_fw/test_util/default_game/game/IMyItemContainer.class
eu/pedu/adv19s_fw/test_util/default_game/I18n.class
eu/pedu/adv19s_fw/test_util/default_game/ui_sw/IMyGUI.class
eu/pedu/adv19s_fw/test_util/default_game/smanagers/ScenMan_GLit_Icebox.class
eu/pedu/adv19s_fw/test_util/default_game/smanagers/ScenMan_TLoc_Icebox.class
eu/pedu/adv19s_fw/test_util/default_game/ui_sw/PaneItem.class
eu/pedu/adv19s_fw/test_util/default_game/ui_tx/UIC_GamePlayer.class
eu/pedu/adv19s_fw/test_util/default_game/game/common/Util.class
eu/pedu/adv19s/_4_1245/mira04_mirek/game/AdvScenarioManager.class
eu/pedu/adv19s_fw/test_util/default_game/ui_fx4txt/IMyGUI4txt.class
eu/pedu/adv19s_fw/test_util/default_game/game/IMyItem.class
eu/pedu/adv19s_fw/scenario/ScenarioStep.class
eu/pedu/adv19s_fw/test_util/default_game/smanagers/ScenarioStepsConL.class
eu/pedu/adv19s_fw/test_util/default_game/game/version_t/BagT_Hands.class
eu/pedu/adv19s_fw/game_txt/IGame.class
eu/pedu/adv19s_fw/test_util/game_txt_test/TGameTester.class
eu/pedu/adv19s_fw/test_util/default_game/ui_sw/MenuLogger$2.class
eu/pedu/adv19s_fw/test_util/default_game/game/common/ActionPutDown.class
eu/pedu/adv19s_fw/test_util/scenario_test/ScenarioTester.class
eu/pedu/adv19s_fw/test_util/default_game/ui_sw/MenuLogger$TimeCommand.class
eu/pedu/adv19s_fw/test_util/default_game/ui_sw/DefaultGUI$1.class
eu/pedu/adv19s_fw/test_util/default_game/ui_tx/UIC_GamePlayer$ByScanner.class
eu/pedu/adv19s_fw/game_txt/IUI.class
eu/pedu/adv19s_fw/test_util/default_game/ui_sw/ThingButtonPane.class
eu/pedu/adv19s_fw/utilities/IO$RemoveAccents.class
eu/pedu/adv19s/_4_1245/mira04_mirek/game/HObjekty.class
eu/pedu/adv19s_fw/test_util/default_game/ui_sw/MenuGame$4.class
eu/pedu/adv19s_fw/test_util/default_game/game/common/ActionPutGlassesOn.class
eu/pedu/adv19s_fw/game_txt/IAction.class
eu/pedu/adv19s_fw/test_util/default_game/ui_sw/MenuGame.class
eu/pedu/adv19s_fw/test_util/default_game/ui_fx4txt/CommandPane.class
eu/pedu/adv19s_fw/utilities/Util.class
eu/pedu/adv19s_fw/utilities/IndentingPrintStream$1.class
eu/pedu/adv19s_fw/game_txt/IPlace.class
eu/pedu/adv19s_fw/test_util/default_game/ui_tx/UID_Multiplayer.class
eu/pedu/adv19s_fw/test_util/scenario_test/ScenarioTester$Names.class
eu/pedu/adv19s_fw/test_util/default_game/game/version_t/PlaceT_Room.class
eu/pedu/adv19s_fw/test_util/game_txt_test/ASolutionTester$MockFactory.class
eu/pedu/adv19s_fw/test_util/default_game/ui_fx4txt/ItemsPane.class
eu/pedu/adv19s_fw/test_util/game_txt_test/ASolutionTester.class
eu/pedu/adv19s_fw/test_util/default_game/ui_sw/MenuHelp$HLL.class
eu/pedu/adv19s_fw/test_util/default_game/GSMFactoryTLocEN_Apartment.class
eu/pedu/adv19s/_4_1245/mira04_mirek/game/ANamed.class
eu/pedu/adv19s_fw/Framework.class
eu/pedu/adv19s_fw/empty_classes/EmptyPlace.class
eu/pedu/adv19s_fw/test_util/default_game/ui_sw/GButton.class
eu/pedu/adv19s_fw/test_util/default_game/game/common/Conversation.class
eu/pedu/adv19s/_4_1245/mira04_mirek/game/AItemContainer.class
eu/pedu/adv19s_fw/empty_classes/EmptyItem.class
eu/pedu/adv19s_fw/test_util/default_game/game/version_g/WorldG_Apartment.class
eu/pedu/adv19s_fw/empty_classes/EmptyAction.class
eu/pedu/adv19s_fw/test_util/default_game/game/common/ActionUnderlayIcebox.class
eu/pedu/adv19s_fw/test_util/game_txt_test/GameSummary.class
eu/pedu/adv19s/_4_1245/mira04_mirek/game/T12_NotVisited$Visitor19s02.class
eu/pedu/adv19s_fw/game_gui/IUIG.class
eu/pedu/adv19s_fw/test_util/default_game/game/common/ActionHelp.class
eu/pedu/adv19s_fw/game_txt/IScenarioManager.class
eu/pedu/adv19s_fw/test_util/default_game/smanagers/ScenarioStepsLoc.class
eu/pedu/adv19s_fw/test_util/default_game/ui_fx4txt/MenuPane.class
eu/pedu/adv19s_fw/utilities/IndentingReporter.class
eu/pedu/adv19s_fw/test_util/default_game/ui_fx/OutputPane.class
eu/pedu/adv19s_fw/empty_classes/EmptyWorld.class
eu/pedu/adv19s_fw/test_util/default_game/game/version_t/WorldT_Apartment.class
eu/pedu/adv19s/_4_1245/mira04_mirek/game/ActionPlant.class
eu/pedu/adv19s_fw/game_gui/IItemContainerG.class
eu/pedu/adv19s_fw/empty_classes/IAuthorPrototype.class
eu/pedu/adv19s_fw/test_util/default_game/ui_tx/UID_Multiplayer$IGameMultiplayer.class
eu/pedu/adv19s_fw/utilities/DBG_Formater.class
eu/pedu/adv19s_fw/test_util/default_game/smanagers/ScenarioStepsLit.class
eu/pedu/adv19s_fw/test_util/default_game/ui_sw/DefaultGUI$InputListener.class
eu/pedu/adv19s_fw/test_util/default_game/game/IMyGSMFactory.class
eu/pedu/adv19s_fw/test_util/default_game/ui_tx/UID_Multiplayer$ByScanner.class
eu/pedu/adv19s_fw/test_util/default_game/ui_fx/BagPane.class
eu/pedu/adv19s_fw/test_util/game_txt_test/GivenSetTester$Visitor.class
eu/pedu/adv19s_fw/test_util/default_game/ui_fx4txt/AButtonPane.class
eu/pedu/adv19s_fw/test_util/default_game/DATA/TextsL.class
eu/pedu/adv19s_fw/utilities/ToASCII.class
eu/pedu/adv19s_fw/test_util/game_txt_test/ScenarioSummary.class
eu/pedu/adv19s_fw/test_util/default_game/ui_sw/AButtonPane.class
eu/pedu/adv19s_fw/test_util/default_game/DATA/Texts.class
eu/pedu/adv19s_fw/utilities/IO$ITester.class
eu/pedu/adv19s_fw/test_util/default_game/ui_fx/DefaultGUIFX.class
eu/pedu/adv19s_fw/test_util/scenario_test/ScenarioManagerTester.class
eu/pedu/adv19s/_4_1245/mira04_mirek/game/ActionDestroy.class
eu/pedu/adv19s_fw/test_util/game_txt_test/GivenSetTester.class
eu/pedu/adv19s_fw/test_util/default_game/GSMTMultiFactory.class
eu/pedu/adv19s_fw/test_util/default_game/smanagers/ScenMan_TConL_Icebox.class
eu/pedu/adv19s_fw/game_gui/IScenarioManagerG.class
eu/pedu/adv19s_fw/empty_classes/EmptyScenarioManager.class
eu/pedu/adv19s_fw/test_util/default_game/ui_fx4txt/OutputPane.class
eu/pedu/adv19s_fw/test_util/default_game/DATA/DataPkg.class
eu/pedu/adv19s_fw/game_txt/IAuthor.class
eu/pedu/adv19s_fw/test_util/default_game/ui_fx4txt/NeigborsPane.class
eu/pedu/adv19s/_4_1245/mira04_mirek/game/SpaceShip.class
eu/pedu/adv19s_fw/utilities/UncompletedMethodException.class
eu/pedu/adv19s_fw/utilities/DBG_Handler.class
eu/pedu/adv19s_fw/utilities/IndentingPrintStream$ThreadLocalIndent.class
eu/pedu/adv19s_fw/test_util/default_game/smanagers/ScenMan_TLit_Icebox.class
eu/pedu/adv19s_fw/test_util/default_game/game/common/ActionGoTo.class
eu/pedu/adv19s_fw/test_util/scenario_test/SMSummary.class
eu/pedu/adv19s_fw/utilities/IndentingFormater.class
eu/pedu/adv19s_fw/test_util/default_game/GetSetLocale.class
eu/pedu/adv19s_fw/empty_classes/EmptyAAction.class
eu/pedu/adv19s_fw/test_util/default_game/game/version_g/GameG_Icebox.class
eu/pedu/adv19s_fw/test_util/default_game/ui_fx/CommandPane.class
eu/pedu/adv19s_fw/test_util/default_game/Util.class
eu/pedu/adv19s_fw/test_util/common/TestUtilitiy.class
eu/pedu/adv19s_fw/test_util/default_game/game/common/AAction.class
eu/pedu/adv19s/_4_1245/mira04_mirek/game/ActionPutDown.class
eu/pedu/adv19s_fw/utilities/DBG_Logger.class
eu/pedu/adv19s_fw/test_util/default_game/ui_fx/NeigborsPane.class
eu/pedu/adv19s_fw/test_util/default_game/game/version_g/ItemG.class
eu/pedu/adv19s_fw/game_txt/IGSMFactoryProduct.class
eu/pedu/adv19s_fw/test_util/default_game/ui_fx4txt/DefaultGUI4txt.class
eu/pedu/adv19s_fw/utilities/CallerReporter$Level.class
eu/pedu/adv19s_fw/empty_classes/ANamed.class
eu/pedu/adv19s/_4_1245/mira04_mirek/game/Room.class
eu/pedu/adv19s_fw/empty_classes/EmptyGSMFactoryG.class
eu/pedu/adv19s_fw/test_util/default_game/IAuthorDemo.class
eu/pedu/adv19s_fw/game_txt/IItemContainer.class
eu/pedu/adv19s_fw/utilities/IO$1.class
eu/pedu/adv19s_fw/test_util/default_game/ui_sw/MenuLogger.class
eu/pedu/adv19s/_4_1245/mira04_mirek/game/MyController.class
eu/pedu/adv19s_fw/test_util/game_txt_test/TGameInitTester.class
eu/pedu/adv19s_fw/test_util/default_game/ui_fx/ItemsPane.class
eu/pedu/adv19s/_4_1245/mira04_mirek/game/ActionPickUp.class
eu/pedu/adv19s_fw/game_gui/IGSMFactoryProductG.class
eu/pedu/adv19s_fw/test_util/default_game/ui_fx4txt/IInitializable.class
eu/pedu/adv19s_fw/test_util/default_game/game/IMyGame.class
eu/pedu/adv19s/_4_1245/mira04_mirek/game/ActionMove.class
eu/pedu/adv19s_fw/test_util/default_game/ui_fx/MenuPane.class
eu/pedu/adv19s/_4_1245/mira04_mirek/textui/UIB_Scanner.class
eu/pedu/adv19s_fw/test_util/default_game/game/common/ActionTake.class
eu/pedu/adv19s_fw/scenario/Limits.class
eu/pedu/adv19s_fw/test_util/common/TestException.class
eu/pedu/adv19s_fw/test_util/game_txt_test/ATestVisitor.class
eu/pedu/adv19s_fw/game_gui/IBagG.class
eu/pedu/adv19s_fw/test_util/default_game/GSMFactoryTLit_Apartment.class
eu/pedu/adv19s/_4_1245/mira04_mirek/game/ActionPowerUp.class
eu/pedu/adv19s_fw/scenario/TypeOfStep$1.class
eu/pedu/adv19s/_4_1245/mira04_mirek/Start.class
eu/pedu/adv19s_fw/test_util/default_game/game/version_t/GameT_Icebox.class
eu/pedu/adv19s_fw/scenario/AScenarioManager$ExtendingSM.class
eu/pedu/adv19s_fw/test_util/default_game/ui_tx/UIB_Console.class
eu/pedu/adv19s/_4_1245/mira04_mirek/game/ActionHelp.class
eu/pedu/adv19s_fw/test_util/default_game/IAuthorGDemo.class
eu/pedu/adv19s_fw/test_util/default_game/ui_sw/DefaultGUI.class
eu/pedu/adv19s_fw/test_util/default_game/GSMFactoryTLocCZ_Apartment.class
eu/pedu/adv19s_fw/test_util/default_game/ui_tx/UID_Multiplayer$ByJOptionPane.class
eu/pedu/adv19s/_4_1245/mira04_mirek/textui/UIA_JOptionPane.class
eu/pedu/adv19s/_4_1245/mira04_mirek/game/ActionExit.class
eu/pedu/adv19s_fw/utilities/CallerReporter.class
eu/pedu/adv19s_fw/test_util/default_game/smanagers/ScenarioStepsCon.class
eu/pedu/adv19s_fw/test_util/default_game/ui_sw/AItemContainerButtonPane.class
eu/pedu/adv19s_fw/test_util/default_game/GSMFactoryG_Apartment.class
eu/pedu/adv19s_fw/test_util/default_game/ui_fx/AButtonPane.class
eu/pedu/adv19s_fw/test_util/default_game/game/version_t/ItemT.class
eu/pedu/adv19s_fw/utilities/IO$Correction.class
eu/pedu/adv19s_fw/test_util/default_game/ui_sw/MenuGame$1.class
eu/pedu/adv19s/_4_1245/mira04_mirek/game/ActionVerify.class
eu/pedu/adv19s/_4_1245/mira04_mirek/game/IAuthorAM.class
eu/pedu/adv19s_fw/utilities/DBG.class
eu/pedu/adv19s_fw/scenario/Scenario.class
eu/pedu/adv19s_fw/test_util/default_game/IAuthorTDemo.class
eu/pedu/adv19s_fw/test_util/default_game/game/IMyBag.class
eu/pedu/adv19s_fw/test_util/default_game/ui_tx/UIE_Informing.class
eu/pedu/adv19s_fw/test_util/game_txt_test/TGameStepTester$1.class
eu/pedu/adv19s/_4_1245/mira04_mirek/game/T12_NotVisited.class
eu/pedu/adv19s_fw/utilities/MultiOutput.class
eu/pedu/adv19s_fw/empty_classes/EmptyGame.class
eu/pedu/adv19s_fw/empty_classes/EmptyGUI4txt.class
eu/pedu/adv19s_fw/utilities/FormatStrings.class
eu/pedu/adv19s_fw/empty_classes/EmptyGUI.class
eu/pedu/adv19s_fw/scenario/TypeOfStep$Subtype.class
eu/pedu/adv19s_fw/test_util/default_game/ui_fx/IInitializable.class
eu/pedu/adv19s_fw/game_txt/IItem.class
eu/pedu/adv19s_fw/game_gui/IPlaceG.class
eu/pedu/adv19s_fw/test_util/default_game/game/common/ActionRead.class
eu/pedu/adv19s_fw/utilities/IO.class
eu/pedu/adv19s_fw/test_util/default_game/game/version_t/AItemContainerT.class
eu/pedu/adv19s_fw/test_util/default_game/ui_sw/MenuLogger$4.class
eu/pedu/adv19s_fw/test_util/default_game/InitProperties.class
eu/pedu/adv19s_fw/test_util/default_game/ui_fx/IMyGUI.class
eu/pedu/adv19s_fw/utilities/IndentingPrintStream.class
eu/pedu/adv19s_fw/game_txt/IGUI4txt.class
eu/pedu/adv19s_fw/test_util/default_game/ui_sw/GameMap.class
eu/pedu/adv19s_fw/game_txt/IBag.class
eu/pedu/adv19s_fw/scenario/AScenarioManagerG.class
eu/pedu/adv19s_fw/test_util/default_game/game/version_g/PlaceG_Room.class
eu/pedu/adv19s_fw/test_util/default_game/game/common/ANamed.class
eu/pedu/adv19s_fw/test_util/scenario_test/ScenarioTester$Pair.class
eu/pedu/adv19s_fw/test_util/default_game/smanagers/ScenMan_TCon_Icebox.class
eu/pedu/adv19s_fw/game_gui/IWorldG.class
eu/pedu/adv19s_fw/game_txt/INamed.class
eu/pedu/adv19s_fw/test_util/common/FrameworkException.class
eu/pedu/adv19s_fw/test_util/default_game/MainTXT.class
eu/pedu/adv19s_fw/test_util/game_txt_test/BasicSetTester.class
eu/pedu/adv19s_fw/empty_classes/IAuthorPrototypeG.class
eu/pedu/adv19s_fw/game_txt/IWorld.class
eu/pedu/adv19s_fw/scenario/TypeOfScenario.class
eu/pedu/adv19s_fw/test_util/default_game/game/common/ActionOpen.class
eu/pedu/adv19s_fw/test_util/default_game/game/IMyWorld.class
eu/pedu/adv19s_fw/empty_classes/EmptyGSMFactory.class
eu/pedu/adv19s_fw/empty_classes/EmptyBag.class
eu/pedu/adv19s_fw/test_util/default_game/ui_sw/Main_GUI.class
eu/pedu/adv19s_fw/utilities/IndentingPrintStream$IndentingOutputStream.class
eu/pedu/adv19s_fw/test_util/default_game/ui_tx/UIC_GamePlayer$IGamePlayer.class
eu/pedu/adv19s_fw/test_util/default_game/game/common/State.class
eu/pedu/adv19s_fw/test_util/default_game/ui_tx/UIA_JOptionPane.class
eu/pedu/adv19s_fw/test_util/factory_test/FactoryTester.class
eu/pedu/adv19s_fw/test_util/default_game/game/version_g/AItemContainerG.class
eu/pedu/adv19s_fw/test_util/scenario_test/ScenarioTester$Pair$3.class
eu/pedu/adv19s/_4_1245/mira04_mirek/game/State.class
eu/pedu/adv19s/_4_1245/mira04_mirek/game/AAction.class
eu/pedu/adv19s_fw/test_util/default_game/ui_sw/MenuLogger$3.class
eu/pedu/adv19s_fw/test_util/default_game/ui_sw/MenuHelp.class
eu/pedu/adv19s_fw/test_util/default_game/ui_sw/RoomButtonPane.class
eu/pedu/adv19s_fw/test_util/default_game/ui_fx4txt/BagPane.class
eu/pedu/adv19s_fw/test_util/scenario_test/ScenarioTester$1.class
eu/pedu/adv19s/_4_1245/mira04_mirek/game/Hands.class
eu/pedu/adv19s_fw/test_util/default_game/ui_sw/BagButtonPane.class
eu/pedu/adv19s_fw/game_gui/IGSMFactoryG.class
eu/pedu/adv19s_fw/test_util/default_game/game/IMyPlace.class
eu/pedu/adv19s_fw/test_util/default_game/ui_sw/MenuGame$3.class
eu/pedu/adv19s_fw/test_util/default_game/ui_tx/UIC_GamePlayer$ByJOptionPane.class
eu/pedu/adv19s_fw/test_util/scenario_test/ScenarioTester$Pair$2.class
eu/pedu/adv19s/_4_1245/mira04_mirek/game/MirSpaceGame.class
eu/pedu/adv19s_fw/test_util/game_txt_test/TGameRunTester.class
eu/pedu/adv19s_fw/test_util/default_game/ui_sw/NeighborButtonPane.class
eu/pedu/adv19s_fw/game_gui/IGameG.class
eu/pedu/adv19s_fw/test_util/default_game/ui_sw/MenuHelp$2.class
eu/pedu/adv19s/_4_1245/mira04_mirek/game/Texts.class
eu/pedu/adv19s_fw/test_util/ATester.class
eu/pedu/adv19s_fw/scenario/TypeOfStep.class
eu/pedu/adv19s_fw/test_util/default_game/game/common/ActionClose.class
eu/pedu/adv19s_fw/test_util/default_game/ui_tx/UI_Util.class
eu/pedu/adv19s_fw/test_util/default_game/ui_sw/LogWindow.class
eu/pedu/adv19s_fw/game_gui/Icon.class
eu/pedu/adv19s_fw/game_gui/IItemG.class
eu/pedu/adv19s_fw/test_util/default_game/game/common/ActionExit.class
eu/pedu/adv19s_fw/test_util/default_game/ui_sw/MenuGame$2.class
eu/pedu/adv19s_fw/test_util/game_txt_test/TGameStepTester.class
eu/pedu/adv19s_fw/test_util/game_txt_test/BasicSetTester$Visitor.class
eu/pedu/adv19s_fw/test_util/default_game/ui_sw/MenuLogger$1.class
eu/pedu/adv19s/_4_1245/mira04_mirek/AdvGSMFactory.class
eu/pedu/adv19s/_4_1245/mira04_mirek/DATA/IArea.class
eu/pedu/adv19s_fw/scenario/AScenarioManager.class
eu/pedu/adv19s_fw/utilities/ConditionalPrinter.class
eu/pedu/adv19s_fw/test_util/default_game/GSMFactoryTCon_Apartment.class
eu/pedu/adv19s_fw/test_util/default_game/ui_sw/MenuHelp$1.class
eu/pedu/adv19s_fw/test_util/scenario_test/ScenarioTester$Pair$1.class
eu/pedu/adv19s_fw/game_txt/BasicActions.class
eu/pedu/adv19s_fw/game_txt/IGSMFactory.class
eu/pedu/adv19s_fw/test_util/default_game/game/version_g/BagG_Hands.class
eu/pedu/adv19s_fw/test_util/game_gui_test/GTester.class
eu/pedu/adv19s_fw/test_util/default_game/ui_fx/MapWindow.class
